R Notebook
…
inc_top <- phyloseq::prune_taxa(topotus, inc_phy) %>%
  phyloseq::filter_taxa(function(x) sum(x) >= 1, T) %>% 
  tax_glom(taxrank = "Genus")
  
parsed_inc <- parse_phyloseq(inc_top)

print(parsed_inc)

## <Taxmap>
##   442 taxa: ab. Bacteria ... ra. Gp5_unclassified
##   442 edges: NA->ab, ab->ac, ab->ad ... jw->qy, jx->qz, jy->ra
##   4 data sets:
##     otu_table:
##       # A tibble: 184 x 290
##         taxon_id otu_id  i049  i050  i051  i052  i053  i054  i055
##         <chr>    <chr>  <dbl> <dbl> <dbl> <dbl> <dbl> <dbl> <dbl>
##       1 jz       Otu00  1228  1288   993  1878  2969  2775  1704
##       2 ka       Otu00    73    72    62    51   114    74    79
##       3 kb       Otu00    63    51    66    34   105    78    62
##       #  with 181 more rows, and 281 more variables:
##       #   i056 <dbl>, i057 <dbl>, i058 <dbl>, i059 <dbl>,
##       #   i060 <dbl>, i063 <dbl>, i064 <dbl>, i065 <dbl>,
##       #   i066 <dbl>, i067 <dbl>, 
##     tax_data:
##       # A tibble: 184 x 8
##         taxon_id otu_id  Kingdom  Phylum Class Order Family Genus
##         <chr>    <chr>   <chr>    <chr>  <chr> <chr> <chr>  <chr>
##       1 jz       Otu000 Bacteria Acido Acid Gp6   Gp6_u Gp6_
##       2 ka       Otu000 Bacteria Prote Gamm Gamm Gamma Gamm
##       3 kb       Otu000 Bacteria Prote Gamm Xant Sinob Ster
##       #  with 181 more rows
##     sample_data:
##       # A tibble: 288 x 14
##         sample_id i_id  sample treatment replication jar   day  
##         <chr>     <chr> <chr>  <chr>     <chr>       <chr> <chr>
##       1 i049      i049  49     Control   1           1     7    
##       2 i050      i050  50     Control   2           2     7    
##       3 i051      i051  51     Control   3           3     7    
##       #  with 285 more rows, and 7 more variables: pH <chr>,
##       #   N_flash <chr>, C_flash <chr>,
##       #   gravimetric_water_content <chr>, NH3 <chr>, NO3 <chr>,
##       #   MBC_mg.kg_per_dry_wt_soil <chr>
…
parsed_inc$data$tax_abund <- calc_taxon_abund(parsed_inc, "otu_table",
                                              cols = parsed_inc$data$sample_data$i_id)

## Summing per-taxon counts from 288 columns for 442 taxa

parsed_inc$data$diff_table <- compare_groups(parsed_inc, "tax_abund",
                                             cols = parsed_inc$data$sample_data$i_id, # What columns of sample data to use 
                                             groups = parsed_inc$data$sample_data$treatment) # What category each sample is assigned to
print(parsed_inc$data$diff_table)

## # A tibble: 2,652 x 7
##    taxon_id treatment_1 treatment_2 log2_median_rat median_diff mean_diff
##    <chr>    <chr>       <chr>                  <dbl>       <dbl>     <dbl>
##  1 ab       Control     Alfalfa              0.288        1916.   3893.   
##  2 ac       Control     Alfalfa              0.801        1710    2279.   
##  3 ad       Control     Alfalfa             -0.404        -606.     56.8  
##  4 ae       Control     Alfalfa              0.396          43      25.9  
##  5 af       Control     Alfalfa             -2.33         -170.   -200.   
##  6 ag       Control     Alfalfa              0.718          14.5    25.7  
##  7 ah       Control     Alfalfa              0.0829         74.5   558.   
##  8 ai       Control     Alfalfa              1.07           80     107.   
##  9 aj       Control     Alfalfa              0               0       0.458
## 10 ak       Control     Alfalfa             -0.00406        -2     181.   
## #  with 2,642 more rows, and 1 more variable: wilcox_p_value <dbl>
…
